"CREATED_AT","CREATED_BY","LAST_MODIFIED_AT","LAST_MODIFIED_BY","COST_PRICE","HARVEST_DATE","LANDING_DATE","MICROGREEN_TYPE"
2021-12-12 12:00:00.000000,"CREATED_BY",2021-12-12 12:00:00.000000,"LAST_MODIFIED_BY","1.00",2021-12-12 12:00:00.000000,2021-12-12 12:00:00.000000,"PEA"
2021-12-12 12:00:00.000000,"CREATED_BY",2021-12-12 12:00:00.000000,"LAST_MODIFIED_BY","1.00",2021-12-12 12:00:00.000000,2021-12-12 12:00:00.000000,"RADISH"
2021-12-12 12:00:00.000000,"CREATED_BY",2021-12-12 12:00:00.000000,"LAST_MODIFIED_BY","1.00",2021-12-12 12:00:00.000000,2021-12-12 12:00:00.000000,SUNFLOWER
